Data analysis report
…
back <- back_pri_acc %>% 
  select(-c(MAD, ENMO)) %>% 
  full_join(back_sec_acc, by = c("ID", "speed")) %>% 
  left_join(cardio, by = c("ID", "speed"))

A piece of a data frame used in all subsequent analysis can be seen below.

back

## # A tibble: 226 x 19
##       ID speed    AC   MAD  ENMO Sex     Age Body_mass   BMI  V.O2 V.CO2
##    <dbl> <dbl> <dbl> <dbl> <dbl> <chr> <dbl>     <dbl> <dbl> <dbl> <dbl>
##  1    34     0    NA    NA    NA F      22.7      96.3  39.3  264   224.
##  2    34     1     5     5    42 F      22.7      96.3  39.3  266.  215 
##  3    34     3    76   100    81 F      22.7      96.3  39.3  721.  527.
##  4    34     4   160   175   123 F      22.7      96.3  39.3  958.  752.
##  5    34     5   253   278   188 F      22.7      96.3  39.3 1238. 1072.
##  6    34     6   457   621   453 F      22.7      96.3  39.3 1511. 1367 
##  7    36     0    NA    NA    NA F      41.2      97.3  38.2  252.  211.
##  8    36     1     0     8    29 F      41.2      97.3  38.2  346.  276.
##  9    36     3   105   109    80 F      41.2      97.3  38.2  821   602 
## 10    36     4   280   189   120 F      41.2      97.3  38.2  991.  730.
## #  with 216 more rows, and 8 more variables: VO2.kg <dbl>, kcal <dbl>,
## #   MET <dbl>, SED_CAT_by_MET <dbl>, LIG_CAT_by_MET <dbl>,
## #   MOD_CAT_by_MET <dbl>, VIG_CAT_by_MET <dbl>, INTENS_CAT_by_MET <dbl>
…
