…
back <- read_csv(here("data", "back_sec.csv")) %>% 
  select(ID, speed, body_mass, height, BMI, sex, age, pVGRF_N, pVACC_g, pRGRF_N, pRACC_g) %>% 
  filter(speed <= 6)

hip <- read_csv(here("data", "hip_sec.csv")) %>% 
  select(ID, speed, body_mass, height, BMI, sex, age, pVGRF_N, pVACC_g, pRGRF_N, pRACC_g) %>% 
  filter(speed <= 6)

A piece of a data frame used in all subsequent analysis can be seen below.

ankle

## # A tibble: 299 x 11
##       ID speed body_mass height   BMI sex     age pVGRF_N pVACC_g pRGRF_N
##    <dbl> <dbl>     <dbl>  <dbl> <dbl> <chr> <dbl>   <dbl>   <dbl>   <dbl>
##  1     3     2      85.6    171  29.3 M        50   1003.    2.21   1038.
##  2     3     3      85.6    171  29.3 M        50   1114.    2.84   1132.
##  3     3     4      85.6    171  29.3 M        50   1220.    3.64   1243.
##  4     3     5      85.6    171  29.3 M        50   1212.    3.78   1250.
##  5     3     6      85.6    171  29.3 M        50   1237.    3.76   1285.
##  6     4     2      61.1    162  23.3 F        45    670.    1.81    673.
##  7     4     3      61.1    162  23.3 F        45    694.    2.20    710.
##  8     4     4      61.1    162  23.3 F        45    743.    2.74    756.
##  9     4     5      61.1    162  23.3 F        45    803.    3.17    819.
## 10     4     6      61.1    162  23.3 F        45    872.    3.66    878.
## # ... with 289 more rows, and 1 more variable: pRACC_g <dbl>
…
